{
    "results": [
        {
                "title": "AMD",
                "generalInformation": "bla bla bla",
                "hasImage": true,
                "image": {
                    "path": "/assets/img/articles/ryzen.jpg",
                    "alt": "ryzen"
            },
                "cols": 3,
                "rows": 3
        },
        {
                "title": "AMD",
                "generalInformation": "bla bla bla",
                "image": {
                    "path": "/assets/img/articles/ryzen.jpg",
                    "alt": "ryzen"
            },
                "cols": 1,
                "rows": 3
        },
        {
                "title": "AMD",
                "generalInformation": "bla bla bla",
                "hasImage": true,
                "image": {
                    "path": "/assets/img/articles/ryzen.jpg",
                    "alt": "ryzen"
            },
                "cols": 2,
                "rows": 2
        },
        {
                "title": "AMD",
                "generalInformation": "bla bla bla",
                "hasImage": true,
                "image": {
                    "path": "/assets/img/articles/ryzen.jpg",
                    "alt": "ryzen"
            },
                "cols": 2,
                "rows": 2
        },
        {
            "title": "On this day...",
            "generalInformation": "<ul><li>1995 - The first microprocessor was released</li><li>2012 - AMD announced the RX 480 lineup</li><li>2008 - GIGABYTE started working on the AM2+ socket motherboards</li></ul>",
            "hasImage": false,
            "cols": 4,
            "rows": 3
        }
    ]
}